[
{
    "precipitation": "облачно",
    "precipitation_count": "0.8 мм",
    "temp": "21",
    "wind": "3 м/с",
    "pressure": "1019 гПа",
    "date": "26 июля"
},
{
    "precipitation": "небольшой дождь",
    "precipitation_count": "4.5 мм",
    "temp": "23",
    "wind": "3 м/с",
    "pressure": "1018 гПа",
    "date": "27 июля"
},
{
    "precipitation": "пасмурно",
    "precipitation_count": null,
    "temp": "24",
    "wind": "2 м/с",
    "pressure": "1016 гПа",
    "date": "28 июля"
},
{
    "precipitation": "небольшой дождь",
    "precipitation_count": "5.8 мм",
    "temp": "25",
    "wind": "4 м/с",
    "pressure": "1011 гПа",
    "date": "29 июля"
},
{
    "precipitation": "облачно с прояснениями",
    "precipitation_count": "0.9 мм",
    "temp": "23",
    "wind": "4 м/с",
    "pressure": "1006 гПа",
    "date": "30 июля"
},
{
    "precipitation": "дождь",
    "precipitation_count": "13.3 мм",
    "temp": "21",
    "wind": "2 м/с",
    "pressure": "1002 гПа",
    "date": "31 июля"
},
{
    "precipitation": "дождь",
    "precipitation_count": "27.8 мм",
    "temp": "18",
    "wind": "4 м/с",
    "pressure": "998 гПа",
    "date": "1 августа"
},
{
    "precipitation": "пасмурно",
    "precipitation_count": "0.9 мм",
    "temp": "18",
    "wind": "4 м/с",
    "pressure": "1004 гПа",
    "date": "2 августа"
},
{
    "precipitation": "пасмурно",
    "precipitation_count": "0.3 мм",
    "temp": "17",
    "wind": "3 м/с",
    "pressure": "1013 гПа",
    "date": "3 августа"
},
{
    "precipitation": "пасмурно",
    "precipitation_count": null,
    "temp": "19",
    "wind": "6 м/с",
    "pressure": "1015 гПа",
    "date": "4 августа"
},
{
    "precipitation": "небольшой дождь",
    "precipitation_count": "7.1 мм",
    "temp": "21",
    "wind": "7 м/с",
    "pressure": "1007 гПа",
    "date": "5 августа"
},
{
    "precipitation": "небольшой дождь",
    "precipitation_count": "15.9 мм",
    "temp": "21",
    "wind": "4 м/с",
    "pressure": "1005 гПа",
    "date": "6 августа"
},
{
    "precipitation": "пасмурно",
    "precipitation_count": "0.7 мм",
    "temp": "17",
    "wind": "5 м/с",
    "pressure": "1011 гПа",
    "date": "7 августа"
},
{
    "precipitation": "ясно",
    "precipitation_count": null,
    "temp": "16",
    "wind": "4 м/с",
    "pressure": "1020 гПа",
    "date": "8 августа"
},
{
    "precipitation": "облачно",
    "precipitation_count": "0.23 мм",
    "temp": "17",
    "wind": null,
    "pressure": null,
    "date": "9 августа"
},
{
    "precipitation": "переменная облачность",
    "precipitation_count": null,
    "temp": "16",
    "wind": null,
    "pressure": null,
    "date": "10 августа"
},
{
    "precipitation": "переменная облачность",
    "precipitation_count": null,
    "temp": "17",
    "wind": null,
    "pressure": null,
    "date": "11 августа"
},
{
    "precipitation": "небольшой дождь",
    "precipitation_count": "2.07 мм",
    "temp": "18",
    "wind": null,
    "pressure": null,
    "date": "12 августа"
},
{
    "precipitation": "облачно с прояснениями",
    "precipitation_count": "0.39 мм",
    "temp": "23",
    "wind": null,
    "pressure": null,
    "date": "13 августа"
},
{
    "precipitation": "небольшой дождь",
    "precipitation_count": "0.97 мм",
    "temp": "24",
    "wind": null,
    "pressure": null,
    "date": "14 августа"
},
{
    "precipitation": "малооблачно",
    "precipitation_count": null,
    "temp": "25",
    "wind": null,
    "pressure": null,
    "date": "15 августа"
},
{
    "precipitation": "малооблачно",
    "precipitation_count": null,
    "temp": "24",
    "wind": null,
    "pressure": null,
    "date": "16 августа"
},
{
    "precipitation": "небольшой дождь",
    "precipitation_count": "1.51 мм",
    "temp": "25",
    "wind": null,
    "pressure": null,
    "date": "17 августа"
},
{
    "precipitation": "небольшой дождь",
    "precipitation_count": "4.78 мм",
    "temp": "24",
    "wind": null,
    "pressure": null,
    "date": "18 августа"
},
{
    "precipitation": "переменная облачность",
    "precipitation_count": "3.35 мм",
    "temp": "25",
    "wind": null,
    "pressure": null,
    "date": "19 августа"
},
{
    "precipitation": "пасмурно",
    "precipitation_count": null,
    "temp": "25",
    "wind": null,
    "pressure": null,
    "date": "20 августа"
},
{
    "precipitation": "переменная облачность",
    "precipitation_count": null,
    "temp": "27",
    "wind": null,
    "pressure": null,
    "date": "21 августа"
},
{
    "precipitation": "малооблачно",
    "precipitation_count": null,
    "temp": "26",
    "wind": null,
    "pressure": null,
    "date": "22 августа"
},
{
    "precipitation": "ясно",
    "precipitation_count": "0.43 мм",
    "temp": "26",
    "wind": null,
    "pressure": null,
    "date": "23 августа"
},
{
    "precipitation": "небольшой дождь",
    "precipitation_count": "12.8 мм",
    "temp": "24",
    "wind": null,
    "pressure": null,
    "date": "24 августа"
},
{
    "precipitation": "переменная облачность",
    "precipitation_count": null,
    "temp": "20",
    "wind": null,
    "pressure": null,
    "date": "25 августа"
},
{
    "precipitation": "облачно с прояснениями",
    "precipitation_count": null,
    "temp": "19",
    "wind": null,
    "pressure": null,
    "date": "26 августа"
},
{
    "precipitation": "малооблачно",
    "precipitation_count": null,
    "temp": "20",
    "wind": null,
    "pressure": null,
    "date": "27 августа"
}
]